{
  "project_info": {
    "project_number": "549805291841",
    "project_id": "insure-pro",
    "storage_bucket": "insure-pro.appspot.com"
  },
  "client": [
    {
      "client_info": {
        "mobilesdk_app_id": "1:549805291841:android:ef716be25f54a864b909c0",
        "android_client_info": {
          "package_name": "com.futurity.insurepro"
        }
      },
      "oauth_client": [
        {
          "client_id": "549805291841-rn19gskjr7hgv4scnj74d8jnl23oraeb.apps.googleusercontent.com",
          "client_type": 3
        }
      ],
      "api_key": [
        {
          "current_key": "AIzaSyACY7FxvUjZchYq5Isb-RSqeNCAGZLUudM"
        }
      ],
      "services": {
        "appinvite_service": {
          "other_platform_oauth_client": [
            {
              "client_id": "549805291841-rn19gskjr7hgv4scnj74d8jnl23oraeb.apps.googleusercontent.com",
              "client_type": 3
            }
          ]
        }
      }
    }
  ],
  "configuration_version": "1"
}